{
    "apps" : [
        {
            "name"        : "mini-game9290",
            "script"      : "index.js",
            "args"        : "port=9290 mode=op-staging instanceId=mini_0"
	    },
        {
            "name"        : "mini-game9291",
            "script"      : "index.js",
            "args"        : "port=9291 mode=op-staging instanceId=mini_1"
	    }
    ]
}
